GFORTRAN module version '9' created from Arrays.F95
MD5:3883f065d9c2e5179a1f54bf0851f332 -- If you edit this, you'll get what you deserve.

(() () () () () () () () () () () () () () () () () () () () () () () ()
() () ())

()

()

()

()

()

(2 'arrays' 'arrays' '' 1 ((MODULE UNKNOWN-INTENT UNKNOWN-PROC UNKNOWN
UNKNOWN 0 0) (UNKNOWN 0 0 0 0 UNKNOWN ()) 0 0 () () 0 () () () 0 0)
3 'force_allocate' 'arrays' '' 1 ((PROCEDURE UNKNOWN-INTENT MODULE-PROC
DECL UNKNOWN 0 0 SUBROUTINE IMPLICIT_PURE ALWAYS_EXPLICIT) (UNKNOWN 0 0
0 0 UNKNOWN ()) 4 0 (5 6) () 0 () () () 0 0)
7 'set_element' 'arrays' '' 1 ((PROCEDURE UNKNOWN-INTENT MODULE-PROC
DECL UNKNOWN 0 0 SUBROUTINE IMPLICIT_PURE ALWAYS_EXPLICIT) (UNKNOWN 0 0
0 0 UNKNOWN ()) 8 0 (9 10 11) () 0 () () () 0 0)
5 'arr' '' '' 4 ((VARIABLE INOUT UNKNOWN-PROC UNKNOWN UNKNOWN 0 0
ALLOCATABLE DIMENSION DUMMY) (REAL 8 0 0 0 REAL ()) 0 0 () (1 0 DEFERRED
() ()) 0 () () () 0 0)
6 'newsize' '' '' 4 ((VARIABLE IN UNKNOWN-PROC UNKNOWN UNKNOWN 0 0 DUMMY)
(INTEGER 4 0 0 0 INTEGER ()) 0 0 () () 0 () () () 0 0)
9 'arr' '' '' 8 ((VARIABLE INOUT UNKNOWN-PROC UNKNOWN UNKNOWN 0 0
ALLOCATABLE DIMENSION DUMMY) (REAL 8 0 0 0 REAL ()) 0 0 () (1 0 DEFERRED
() ()) 0 () () () 0 0)
10 'i' '' '' 8 ((VARIABLE IN UNKNOWN-PROC UNKNOWN UNKNOWN 0 0 DUMMY) (
INTEGER 4 0 0 0 INTEGER ()) 0 0 () () 0 () () () 0 0)
11 'val' '' '' 8 ((VARIABLE IN UNKNOWN-PROC UNKNOWN UNKNOWN 0 0 DUMMY) (
REAL 8 0 0 0 REAL ()) 0 0 () () 0 () () () 0 0)
)

('arrays' 0 2 'force_allocate' 0 3 'set_element' 0 7)
