GFORTRAN module version '9' created from Graeffe.F95
MD5:f86ae8503ba4b0f71ed13b38df1cc766 -- If you edit this, you'll get what you deserve.

(() () () () () () () () () () () () () () () () () () () () () () ()
() () () ())

()

()

()

()

()

(2 'arrays' 'arrays' '' 1 ((MODULE UNKNOWN-INTENT UNKNOWN-PROC UNKNOWN
UNKNOWN 0 0) (UNKNOWN 0 0 0 0 UNKNOWN ()) 0 0 () () 0 () () () 0 0)
3 'force_allocate' 'arrays' '' 1 ((PROCEDURE UNKNOWN-INTENT MODULE-PROC
DECL UNKNOWN 0 0 SUBROUTINE IMPLICIT_PURE ALWAYS_EXPLICIT) (UNKNOWN 0 0
0 0 UNKNOWN ()) 4 0 (5 6) () 0 () () () 0 0)
7 'graeffe' 'graeffe' '' 1 ((MODULE UNKNOWN-INTENT UNKNOWN-PROC UNKNOWN
UNKNOWN 0 0) (UNKNOWN 0 0 0 0 UNKNOWN ()) 0 0 () () 0 () () () 0 0)
8 'graeffe_absolute_roots' 'graeffe' '' 1 ((PROCEDURE UNKNOWN-INTENT
MODULE-PROC DECL UNKNOWN 0 0 SUBROUTINE ALWAYS_EXPLICIT) (UNKNOWN 0 0 0
0 UNKNOWN ()) 9 0 (10 11 12) () 0 () () () 0 0)
13 'graeffe_signed_root' 'graeffe' '' 1 ((PROCEDURE UNKNOWN-INTENT
MODULE-PROC DECL UNKNOWN 0 0 FUNCTION ALWAYS_EXPLICIT) (REAL 8 0 0 0
REAL ()) 14 0 (15 16) () 17 () () () 0 0)
18 'graeffe_squared_coefficients' 'graeffe' '' 1 ((PROCEDURE
UNKNOWN-INTENT MODULE-PROC DECL UNKNOWN 0 0 SUBROUTINE ALWAYS_EXPLICIT)
(UNKNOWN 0 0 0 0 UNKNOWN ()) 19 0 (20 21) () 0 () () () 0 0)
22 'poly_deriv' 'polynomials' '' 1 ((PROCEDURE UNKNOWN-INTENT
MODULE-PROC DECL UNKNOWN 0 0 SUBROUTINE ALWAYS_EXPLICIT) (UNKNOWN 0 0 0
0 UNKNOWN ()) 23 0 (24 25) () 0 () () () 0 0)
26 'poly_eval' 'polynomials' '' 1 ((PROCEDURE UNKNOWN-INTENT MODULE-PROC
DECL UNKNOWN 0 0 FUNCTION IMPLICIT_PURE ALWAYS_EXPLICIT) (REAL 8 0 0 0
REAL ()) 27 0 (28 29) () 30 () () () 0 0)
31 'polynomials' 'polynomials' '' 1 ((MODULE UNKNOWN-INTENT UNKNOWN-PROC
UNKNOWN UNKNOWN 0 0) (UNKNOWN 0 0 0 0 UNKNOWN ()) 0 0 () () 0 () () () 0
0)
32 'print_poly' 'polynomials' '' 1 ((PROCEDURE UNKNOWN-INTENT
MODULE-PROC DECL UNKNOWN 0 0 SUBROUTINE ALWAYS_EXPLICIT) (UNKNOWN 0 0 0
0 UNKNOWN ()) 33 0 (34) () 0 () () () 0 0)
35 'push_c' 'polynomials' '' 1 ((PROCEDURE UNKNOWN-INTENT MODULE-PROC
DECL UNKNOWN 0 0 SUBROUTINE ALWAYS_EXPLICIT) (UNKNOWN 0 0 0 0 UNKNOWN ())
36 0 (37 38 39) () 0 () () () 0 0)
40 'set_element' 'arrays' '' 1 ((PROCEDURE UNKNOWN-INTENT MODULE-PROC
DECL UNKNOWN 0 0 SUBROUTINE IMPLICIT_PURE ALWAYS_EXPLICIT) (UNKNOWN 0 0
0 0 UNKNOWN ()) 41 0 (42 43 44) () 0 () () () 0 0)
21 'square' '' '' 19 ((VARIABLE INOUT UNKNOWN-PROC UNKNOWN UNKNOWN 0 0
ALLOCATABLE DIMENSION DUMMY) (REAL 8 0 0 0 REAL ()) 0 0 () (1 0 DEFERRED
() ()) 0 () () () 0 0)
20 'poly' '' '' 19 ((VARIABLE IN UNKNOWN-PROC UNKNOWN UNKNOWN 0 0
ALLOCATABLE DIMENSION DUMMY) (REAL 8 0 0 0 REAL ()) 0 0 () (1 0 DEFERRED
() ()) 0 () () () 0 0)
42 'arr' '' '' 41 ((VARIABLE INOUT UNKNOWN-PROC UNKNOWN UNKNOWN 0 0
ALLOCATABLE DIMENSION DUMMY) (REAL 8 0 0 0 REAL ()) 0 0 () (1 0 DEFERRED
() ()) 0 () () () 0 0)
44 'val' '' '' 41 ((VARIABLE IN UNKNOWN-PROC UNKNOWN UNKNOWN 0 0 DUMMY)
(REAL 8 0 0 0 REAL ()) 0 0 () () 0 () () () 0 0)
43 'i' '' '' 41 ((VARIABLE IN UNKNOWN-PROC UNKNOWN UNKNOWN 0 0 DUMMY) (
INTEGER 4 0 0 0 INTEGER ()) 0 0 () () 0 () () () 0 0)
6 'newsize' '' '' 4 ((VARIABLE IN UNKNOWN-PROC UNKNOWN UNKNOWN 0 0 DUMMY)
(INTEGER 4 0 0 0 INTEGER ()) 0 0 () () 0 () () () 0 0)
5 'arr' '' '' 4 ((VARIABLE INOUT UNKNOWN-PROC UNKNOWN UNKNOWN 0 0
ALLOCATABLE DIMENSION DUMMY) (REAL 8 0 0 0 REAL ()) 0 0 () (1 0 DEFERRED
() ()) 0 () () () 0 0)
25 'deriv' '' '' 23 ((VARIABLE INOUT UNKNOWN-PROC UNKNOWN UNKNOWN 0 0
ALLOCATABLE DIMENSION DUMMY) (REAL 8 0 0 0 REAL ()) 0 0 () (1 0 DEFERRED
() ()) 0 () () () 0 0)
24 'poly' '' '' 23 ((VARIABLE IN UNKNOWN-PROC UNKNOWN UNKNOWN 0 0
ALLOCATABLE DIMENSION DUMMY) (REAL 8 0 0 0 REAL ()) 0 0 () (1 0 DEFERRED
() ()) 0 () () () 0 0)
30 'y' '' '' 27 ((VARIABLE UNKNOWN-INTENT UNKNOWN-PROC UNKNOWN UNKNOWN 0
0 RESULT ALWAYS_EXPLICIT) (REAL 8 0 0 0 REAL ()) 0 0 () () 0 () () () 0
0)
34 'poly' '' '' 33 ((VARIABLE IN UNKNOWN-PROC UNKNOWN UNKNOWN 0 0
ALLOCATABLE DIMENSION DUMMY) (REAL 8 0 0 0 REAL ()) 0 0 () (1 0 DEFERRED
() ()) 0 () () () 0 0)
29 'x' '' '' 27 ((VARIABLE IN UNKNOWN-PROC UNKNOWN UNKNOWN 0 0 DUMMY) (
REAL 8 0 0 0 REAL ()) 0 0 () () 0 () () () 0 0)
28 'poly' '' '' 27 ((VARIABLE IN UNKNOWN-PROC UNKNOWN UNKNOWN 0 0
ALLOCATABLE DIMENSION DUMMY) (REAL 8 0 0 0 REAL ()) 0 0 () (1 0 DEFERRED
() ()) 0 () () () 0 0)
38 'c' '' '' 36 ((VARIABLE IN UNKNOWN-PROC UNKNOWN UNKNOWN 0 0 DUMMY) (
REAL 8 0 0 0 REAL ()) 0 0 () () 0 () () () 0 0)
37 'poly' '' '' 36 ((VARIABLE INOUT UNKNOWN-PROC UNKNOWN UNKNOWN 0 0
ALLOCATABLE DIMENSION DUMMY) (REAL 8 0 0 0 REAL ()) 0 0 () (1 0 DEFERRED
() ()) 0 () () () 0 0)
39 'pow' '' '' 36 ((VARIABLE IN UNKNOWN-PROC UNKNOWN UNKNOWN 0 0 DUMMY)
(INTEGER 4 0 0 0 INTEGER ()) 0 0 () () 0 () () () 0 0)
10 'poly' '' '' 9 ((VARIABLE IN UNKNOWN-PROC UNKNOWN UNKNOWN 0 0
ALLOCATABLE DIMENSION DUMMY) (REAL 8 0 0 0 REAL ()) 0 0 () (1 0 DEFERRED
() ()) 0 () () () 0 0)
11 'roots' '' '' 9 ((VARIABLE INOUT UNKNOWN-PROC UNKNOWN UNKNOWN 0 0
ALLOCATABLE DIMENSION DUMMY) (REAL 8 0 0 0 REAL ()) 0 0 () (1 0 DEFERRED
() ()) 0 () () () 0 0)
12 'k' '' '' 9 ((VARIABLE IN UNKNOWN-PROC UNKNOWN UNKNOWN 0 0 DUMMY) (
INTEGER 4 0 0 0 INTEGER ()) 0 0 () () 0 () () () 0 0)
15 'poly' '' '' 14 ((VARIABLE IN UNKNOWN-PROC UNKNOWN UNKNOWN 0 0
ALLOCATABLE DIMENSION DUMMY) (REAL 8 0 0 0 REAL ()) 0 0 () (1 0 DEFERRED
() ()) 0 () () () 0 0)
16 'root' '' '' 14 ((VARIABLE IN UNKNOWN-PROC UNKNOWN UNKNOWN 0 0 DUMMY)
(REAL 8 0 0 0 REAL ()) 0 0 () () 0 () () () 0 0)
17 'sign' '' '' 14 ((VARIABLE UNKNOWN-INTENT UNKNOWN-PROC UNKNOWN
UNKNOWN 0 0 RESULT ALWAYS_EXPLICIT) (REAL 8 0 0 0 REAL ()) 0 0 () () 0 ()
() () 0 0)
)

('arrays' 0 2 'force_allocate' 0 3 'graeffe' 0 7 'graeffe_absolute_roots'
0 8 'graeffe_signed_root' 0 13 'graeffe_squared_coefficients' 0 18
'poly_deriv' 0 22 'poly_eval' 0 26 'polynomials' 0 31 'print_poly' 0 32
'push_c' 0 35 'set_element' 0 40)
